Tidy Data
…
who

Your Turn 6

Gather the 5th through 60th columns of who into columns named codes and n.

Then select just the country, year, codes and n variables.

who |>
  pivot_longer(names_to = "codes", 
               values_to = "n", 
               cols = 5:60) |>
  select(-iso2, -iso3) 

# A tibble: 405,440 × 4
   country      year codes            n
   <chr>       <dbl> <chr>        <dbl>
 1 Afghanistan  1980 new_sp_m014     NA
 2 Afghanistan  1980 new_sp_m1524    NA
 3 Afghanistan  1980 new_sp_m2534    NA
 4 Afghanistan  1980 new_sp_m3544    NA
 5 Afghanistan  1980 new_sp_m4554    NA
 6 Afghanistan  1980 new_sp_m5564    NA
 7 Afghanistan  1980 new_sp_m65      NA
 8 Afghanistan  1980 new_sp_f014     NA
 9 Afghanistan  1980 new_sp_f1524    NA
10 Afghanistan  1980 new_sp_f2534    NA
# ℹ 405,430 more rows

Run the following code

who |>
  pivot_longer(names_to = "codes", 
               values_to = "n", 
               cols = 5:60) |>
  select(-iso2, -iso3) |>
  separate(col = codes, 
           into = c("new", "type", "sexage"), 
           sep = "_")

# A tibble: 405,440 × 6
   country      year new   type  sexage     n
   <chr>       <dbl> <chr> <chr> <chr>  <dbl>
 1 Afghanistan  1980 new   sp    m014      NA
 2 Afghanistan  1980 new   sp    m1524     NA
 3 Afghanistan  1980 new   sp    m2534     NA
 4 Afghanistan  1980 new   sp    m3544     NA
 5 Afghanistan  1980 new   sp    m4554     NA
 6 Afghanistan  1980 new   sp    m5564     NA
 7 Afghanistan  1980 new   sp    m65       NA
 8 Afghanistan  1980 new   sp    f014      NA
 9 Afghanistan  1980 new   sp    f1524     NA
10 Afghanistan  1980 new   sp    f2534     NA
# ℹ 405,430 more rows
…
Warning: Expected 3 pieces. Missing pieces filled with `NA` in 405440 rows [1, 2, 3, 4,
5, 6, 7, 8, 9, 10, 11, 12, 13, 14, 15, 16, 17, 18, 19, 20, ...].

# A tibble: 405,440 × 7
   country      year type  sex   age_range `1`       n
   <chr>       <dbl> <chr> <chr> <chr>     <chr> <dbl>
 1 Afghanistan  1980 sp    m014  NA-NA     <NA>     NA
 2 Afghanistan  1980 sp    m1524 NA-NA     <NA>     NA
 3 Afghanistan  1980 sp    m2534 NA-NA     <NA>     NA
 4 Afghanistan  1980 sp    m3544 NA-NA     <NA>     NA
 5 Afghanistan  1980 sp    m4554 NA-NA     <NA>     NA
 6 Afghanistan  1980 sp    m5564 NA-NA     <NA>     NA
 7 Afghanistan  1980 sp    m65   NA-NA     <NA>     NA
 8 Afghanistan  1980 sp    f014  NA-NA     <NA>     NA
 9 Afghanistan  1980 sp    f1524 NA-NA     <NA>     NA
10 Afghanistan  1980 sp    f2534 NA-NA     <NA>     NA
# ℹ 405,430 more rows
…
